%YAML 1.1
%TAG !u! tag:unity3d.com,2011:
--- !u!114 &11400000
MonoBehaviour:
  m_ObjectHideFlags: 0
  m_CorrespondingSourceObject: {fileID: 0}
  m_PrefabInstance: {fileID: 0}
  m_PrefabAsset: {fileID: 0}
  m_GameObject: {fileID: 0}
  m_Enabled: 1
  m_EditorHideFlags: 0
  m_Script: {fileID: 11500000, guid: 0785e690c9aa6a44fbcab067172154fa, type: 3}
  m_Name: Lantern
  m_EditorClassIdentifier: 
  sprite: {fileID: 21300000, guid: ec385fd2b38fa274ea8a7ae323a26579, type: 3}
  transform: {fileID: 1321573230596633372, guid: e6be13c4af68e99449c8630347ab59d4,
    type: 3}
  color: {r: 0, g: 0, b: 0, a: 0}
  isStackeable: 0
  itemType: 2
  amount: 0
